\relax 
\@writefile{toc}{\contentsline {title}{Public message analysis with Big Data}{1}}
\@writefile{toc}{\authcount {3}}
\@writefile{toc}{\contentsline {author}{Jacopo Farina}{1}}
\@writefile{toc}{\contentsline {section}{\numberline {1}Introduction}{1}}
\citation{realtimesent}
\citation{mapreduce}
\@writefile{toc}{\contentsline {section}{\numberline {2}Use case}{2}}
\@writefile{toc}{\contentsline {section}{\numberline {3}State of the art and adopted technologies}{3}}
\citation{sentsubject}
\citation{primoscholar}
\citation{sentnlp}
\citation{senttranslate}
\citation{translateslang}
\citation{sentiwordnet}
\@writefile{toc}{\contentsline {section}{\numberline {4}System Architecture}{4}}
\@writefile{lof}{\contentsline {figure}{\numberline {1}{\ignorespaces The application scheme, squared blocks represent the operations, ovals represent data.}}{4}}
\newlabel{fig:scheme}{{1}{4}}
\@writefile{toc}{\contentsline {subsection}{\numberline {4.1}Extraction}{5}}
\citation{bloom}
\citation{sent-stemming}
\citation{snowball}
\@writefile{toc}{\contentsline {subsection}{\numberline {4.2}Analysis}{6}}
\citation{tokenchinese}
\citation{smoothlaplace}
\citation{humandisagree}
\citation{ospreydb}
\@writefile{toc}{\contentsline {subsection}{\numberline {4.3}Reporting and exploration}{8}}
\@writefile{lof}{\contentsline {figure}{\numberline {2}{\ignorespaces An heatmap, showing the density of messages across different places, and an histogram showing the trends of sentiments across time. Both view are interactive, allowing the user to zoom, pan and change intervals, calculating results in real time.}}{9}}
\newlabel{fig:cpanel_mappa_corse}{{2}{9}}
\@writefile{toc}{\contentsline {section}{\numberline {5}Framework for agile development}{9}}
\citation{yesnopang}
\citation{grief}
\citation{pangstar}
\citation{sentcompare}
\citation{sentfrasi}
\citation{onesubject}
\bibcite{mapreduce}{1}
\bibcite{bloom}{2}
\bibcite{ospreydb}{3}
\bibcite{senttranslate}{4}
\bibcite{primoscholar}{5}
\@writefile{toc}{\contentsline {subsection}{\numberline {5.1}Sentiment analysis}{10}}
\bibcite{sentnlp}{6}
\bibcite{translateslang}{7}
\bibcite{yesnopang}{8}
\bibcite{grief}{9}
\bibcite{pangstar}{10}
\bibcite{sentiwordnet}{11}
\bibcite{onesubject}{12}
\bibcite{sentsubject}{13}
\bibcite{sentcompare}{14}
\bibcite{sent-stemming}{15}
\bibcite{realtimesent}{16}
\bibcite{humandisagree}{17}
\bibcite{sentfrasi}{18}
\bibcite{tokenchinese}{19}
\bibcite{snowball}{20}
\bibcite{smoothlaplace}{21}
